{
    "data": {
        "unstructured": {
            "nominees": [
                "Django Unchained", 
                "Life Of Pi", 
                "Lincoln", 
                "Marion Cotillard", 
                "Sally Field", 
                "Helen Mirren", 
                "Naomi Watts", 
                "Rachel Weisz", 
                "Richard Gere", 
                "John Hawkes", 
                "Joaquin Phoenix", 
                "Denzel Washington", 
                "The Best Exotic Marigold Hotel", 
                "Moonrise Kingdom", 
                "Salmon Fishing In The Yemen", 
                "Silver Linings Playbook", 
                "Emily Blunt", 
                "Judi Dench", 
                "Maggie Smith", 
                "Meryl Streep", 
                "Jack Black", 
                "Bradley Cooper", 
                "Ewan Mcgregor", 
                "Bill Murray", 
                "Frankenweenie", 
                "Hotel Transylvania", 
                "Rise Of The Guardians", 
                "Wreck-It Ralph", 
                "The Intouchables", 
                "Kon Tiki", 
                "Rust And Bone", 
                "Amy Adams", 
                "Sally Field", 
                "Helen Hunt", 
                "Nicole Kidman", 
                "Alan Arkin", 
                "Leonardo Dicaprio", 
                "Philip Seymour Hoffman", 
                "Tommy Lee Jones", 
                "Kathryn Bigelow", 
                "Ang Lee", 
                "Steven Spielberg", 
                "Jessica Chastain", 
                "Zero Dark Thirty", 
                "Lincoln", 
                "Silver Linings Playbook", 
                "Argo", 
                "Argo", 
                "Anna Karenina", 
                "Cloud Atlas", 
                "Lincoln", 
                "Act Of Valor", 
                "Stand Up Guys", 
                "The Hunger Games", 
                "Les Miserables", 
                "Boardwalk Empire", 
                "Breaking Bad", 
                "Downton Abbey (Masterpiece)", 
                "The Newsroom", 
                "Connie Britton", 
                "Glenn Close", 
                "Michelle Dockery", 
                "Ben Affleck", 
                "Julianna Margulies", 
                "Steve Buscemi", 
                "Bryan Cranston", 
                "Jeff Daniels", 
                "Jon Hamm", 
                "The Big Bang Theory", 
                "Episodes", 
                "Modern Family", 
                "Smash", 
                "Zooey Deschanel", 
                "Tina Fey", 
                "Julia Louis-Dreyfus", 
                "Amy Poehler", 
                "Alec Baldwin", 
                "Louis C.K.", 
                "Matt Leblanc", 
                "Jim Parsons", 
                "The Girl", 
                "Hatfields & Mccoys", 
                "The Hour", 
                "Political Animals", 
                "Nicole Kidman", 
                "Jessica Lange", 
                "Sienna Miller", 
                "Sigourney Weaver", 
                "Benedict Cumberbatch", 
                "Woody Harrelson", 
                "Toby Jones", 
                "Clive Owen", 
                "Hayden Panettiere", 
                "Archie Panjabi", 
                "Sarah Paulson", 
                "Sofia Vergara", 
                "Max Greenfield", 
                "Danny Huston", 
                "Mandy Patinkin", 
                "Eric Stonestreet", 
                "Jodie Foster", 
                "Argo", 
                "Daniel Day-Lewis", 
                "Les Miserables", 
                "Jennifer Lawrence", 
                "Hugh Jackman", 
                "Brave", 
                "Amour", 
                "Anne Hathaway", 
                "Christoph Waltz", 
                "Django Unchained", 
                "Life Of Pi", 
                "Skyfall", 
                "Homeland", 
                "Claire Danes", 
                "Damian Lewis", 
                "Girls", 
                "Lena Dunham", 
                "Don Cheadle", 
                "Game Change", 
                "Julianne Moore", 
                "Kevin Costner", 
                "Maggie Smith", 
                "Ed Harris"
            ], 
            "awards": [
                "Best Foreign Film in a Motion Picture", 
                "Best Supporting Actress in a Motion Picture", 
                "Best Motion Picture Drama in a Motion Picture", 
                "Best Director in a Motion Picture", 
                "Best Animated Feature Film in a Motion Picture", 
                "Best Supporting Actor in a Motion Picture", 
                "Best Actress Television Series Drama", 
                "Best Screenplay in a Motion Picture", 
                "Best Comedy Actor In A Television Series", 
                "Best Television Series Drama", 
                "Best Actor in a Motion Picture", 
                "Best Actor Drama in a Motion Picture", 
                "Best Actress in a Motion Picture", 
                "Best Actress Motion Picture Drama in a Motion Picture", 
                "Best Actor Television Series Comedy", 
                "Best Motion Picture in a Motion Picture", 
                "Best Original Score in a Motion Picture", 
                "Best Original Song in a Motion Picture", 
                "Award18", 
                "Award19", 
                "Award20", 
                "Award21", 
                "Award22", 
                "Award23", 
                "Award24"
            ], 
            "winners": [
                "Amour", 
                "Anne Hathaway", 
                "Argo", 
                "Ben Affleck", 
                "Brave", 
                "Christoph Waltz", 
                "Claire Danes", 
                "Django Unchained", 
                "Don Cheadle", 
                "Homeland", 
                "Hugh Jackman", 
                "Jeff Daniels", 
                "Jennifer Lawrence", 
                "Jessica Chastain", 
                "Lena Dunham", 
                "Les Miserables", 
                "Life Of Pi", 
                "Skyfall", 
                "Winner18", 
                "Winner19", 
                "Winner20", 
                "Winner21", 
                "Winner22", 
                "Winner23", 
                "Winner24"
            ], 
            "hosts": [
                "Tina Fey", 
                "Amy Poehler"
            ], 
            "presenters": [
                "Robert Pattinson", 
                "Nathan Fillion", 
                "Christian Bale", 
                "Amanda Seyfried", 
                "Jason Statham", 
                "Sly Stallone", 
                "Jeremy Renner", 
                "Dustin Hoffman", 
                "Jessica Alba", 
                "Jeremy Irons", 
                "Bill Clinton"
            ]
        }, 
        "structured": {
            "Best Actor Television Series Comedy": {
                "nominees": [
                    "Lena Dunham"
                ], 
                "presenters": [], 
                "winner": "Lena Dunham"
            }, 
            "Best Motion Picture Drama in a Motion Picture": {
                "nominees": [
                    "The Newsroom", 
                    "Amour", 
                    "Damian Lewis", 
                    "Django Unchained", 
                    "Argo"
                ], 
                "presenters": [], 
                "winner": "Argo"
            }, 
            "Best Actor Drama in a Motion Picture": {
                "nominees": [
                    "Jeff Daniels"
                ], 
                "presenters": [
                    "Dustin Hoffman"
                ], 
                "winner": "Jeff Daniels"
            }, 
            "Best Motion Picture in a Motion Picture": {
                "nominees": [
                    "Les Miserables"
                ], 
                "presenters": [], 
                "winner": "Les Miserables"
            }, 
            "Best Screenplay in a Motion Picture": {
                "nominees": [
                    "Django Unchained"
                ], 
                "presenters": [], 
                "winner": "Django Unchained"
            }, 
            "Best Original Score in a Motion Picture": {
                "nominees": [
                    "Life Of Pi"
                ], 
                "presenters": [], 
                "winner": "Life Of Pi"
            }, 
            "Best Actress Television Series Drama": {
                "nominees": [
                    "Claire Danes"
                ], 
                "presenters": [], 
                "winner": "Claire Danes"
            }, 
            "Award24": {
                "nominees": [], 
                "presenters": [], 
                "winner": "Winner24"
            }, 
            "Award22": {
                "nominees": [], 
                "presenters": [], 
                "winner": "Winner22"
            }, 
            "Award23": {
                "nominees": [], 
                "presenters": [], 
                "winner": "Winner23"
            }, 
            "Award20": {
                "nominees": [], 
                "presenters": [], 
                "winner": "Winner20"
            }, 
            "Award21": {
                "nominees": [], 
                "presenters": [], 
                "winner": "Winner21"
            }, 
            "Best Director in a Motion Picture": {
                "nominees": [
                    "Ben Affleck"
                ], 
                "presenters": [], 
                "winner": "Ben Affleck"
            }, 
            "Best Television Series Drama": {
                "nominees": [
                    "Homeland"
                ], 
                "presenters": [], 
                "winner": "Homeland"
            }, 
            "Best Supporting Actress in a Motion Picture": {
                "nominees": [
                    "Anne Hathaway"
                ], 
                "presenters": [], 
                "winner": "Anne Hathaway"
            }, 
            "Best Actress in a Motion Picture": {
                "nominees": [
                    "Jennifer Lawrence"
                ], 
                "presenters": [], 
                "winner": "Jennifer Lawrence"
            }, 
            "Best Actor in a Motion Picture": {
                "nominees": [
                    "Hugh Jackman"
                ], 
                "presenters": [
                    "Amanda Seyfried", 
                    "Bill Clinton"
                ], 
                "winner": "Hugh Jackman"
            }, 
            "Best Supporting Actor in a Motion Picture": {
                "nominees": [
                    "Christoph Waltz"
                ], 
                "presenters": [], 
                "winner": "Christoph Waltz"
            }, 
            "Best Foreign Film in a Motion Picture": {
                "nominees": [
                    "Amour"
                ], 
                "presenters": [], 
                "winner": "Amour"
            }, 
            "Award19": {
                "nominees": [], 
                "presenters": [], 
                "winner": "Winner19"
            }, 
            "Award18": {
                "nominees": [], 
                "presenters": [], 
                "winner": "Winner18"
            }, 
            "Best Animated Feature Film in a Motion Picture": {
                "nominees": [
                    "Brave"
                ], 
                "presenters": [], 
                "winner": "Brave"
            }, 
            "Best Original Song in a Motion Picture": {
                "nominees": [
                    "Skyfall"
                ], 
                "presenters": [], 
                "winner": "Skyfall"
            }, 
            "Best Actress Motion Picture Drama in a Motion Picture": {
                "nominees": [
                    "Jessica Chastain"
                ], 
                "presenters": [], 
                "winner": "Jessica Chastain"
            }, 
            "Best Comedy Actor In A Television Series": {
                "nominees": [
                    "Don Cheadle"
                ], 
                "presenters": [
                    "Bill Clinton", 
                    "Jeremy Irons", 
                    "Jessica Alba"
                ], 
                "winner": "Don Cheadle"
            }
        }
    }, 
    "metadata": {
        "mappings": {
            "nominees": {
                "method": "detected", 
                "method_description": "none"
            }, 
            "presenters": {
                "method": "detected", 
                "method_description": "none"
            }
        }, 
        "names": {
            "nominees": {
                "method": "hardcoded", 
                "method_description": "Nominees for unstructured data was hard-coded, and detected for association with awards."
            }, 
            "awards": {
                "method": "detected", 
                "method_description": "none"
            }, 
            "hosts": {
                "method": "detected", 
                "method_description": "none"
            }, 
            "presenters": {
                "method": "detected", 
                "method_description": "none"
            }
        }, 
        "year": 2013
    }
}